# File produced by Open Asset Import Library (http://www.assimp.sf.net)
# (assimp v5.0.1588609223)

mtllib result.mtl

# 84 vertex positions
v  20.204012 0 0
v  10.102006 -7.6482638e-07 -17.497189
v  24.10968 111.73005 6.7904739
v  -10.102008 -7.6482632e-07 -17.497187
v  16.189442 111.73005 -6.9277864
v  -20.204012 7.7207026e-14 1.7662909e-06
v  0.34895959 111.73005 -6.9277854
v  -10.102005 7.6482638e-07 17.497189
v  -7.5712814 111.73005 6.7904754
v  10.102005 7.6482638e-07 17.497189
v  0.34896252 111.73005 20.50873
v  16.189442 111.73005 20.50873
v  4.9400978 264.3457 -8.5565128
v  -4.9400988 264.3457 -8.5565119
v  -9.8801966 264.3457 -1.0691163e-05
v  -4.9400973 264.3457 8.556489
v  4.9400973 264.3457 8.556489
v  9.8801956 264.3457 -1.1554917e-05
v  -6.2216969 174.21643 6.2561646
v  -15.774526 242.49115 22.680189
v  -10.402557 243.87384 16.278122
v  0.10987377 177.83783 -1.2895128
v  -4.0282235 243.87384 21.626823
v  8.1493425 177.83783 5.4564056
v  -9.4001923 242.49115 28.028891
v  1.8177751 174.21643 13.00208
v  -7.4853868 282.76071 15.787642
v  -3.9953902 282.6283 11.628427
v  0.16506243 282.6283 15.119463
v  -3.3249333 282.76071 19.278679
v  11.62244 178.85614 10.046425
v  34.651939 222.70589 3.7125728
v  26.29464 224.08855 3.7125728
v  1.7722626 182.47752 10.046425
v  26.29464 224.08855 -4.6085286
v  1.7722626 182.47752 -0.44835609
v  34.651939 222.70589 -4.6085281
v  11.62244 178.85614 -0.4483555
v  32.037277 270.64413 2.2675703
v  26.607805 270.51172 2.2675703
v  26.607805 270.51172 -3.1635146
v  32.037277 270.64413 -3.1635146
v  -5.5387859 211.03363 8.0863304
v  -2.7599611 254.93655 -33.195042
v  -2.7592034 251.35782 -38.0881
v  -5.5387812 204.17352 -1.2932179
v  3.302922 251.35985 -38.088638
v  6.0817642 204.17352 -1.2932179
v  3.3021643 254.93858 -33.195583
v  6.0817604 211.03363 8.0863361
v  -38.735241 287.55267 35.333527
v  -45.103317 267.69119 0.32693514
v  8.6742182 299.03784 34.559128
v  -26.590273 597.58667 25.992733
v  8.5721264 621.68707 36.079178
v  -31.313313 612.92334 0.029229073
v  8.8259983 360.83054 65.678772
v  -54.4753 376.61273 47.520588
v  54.894215 287.55267 35.333527
v  90.16436 366.56952 0.77965772
v  70.539116 376.61273 47.520588
v  54.894215 287.55267 -38.136799
v  8.8260002 360.83054 -76.497063
v  70.539116 376.61273 -50.577267
v  -38.735237 240.9857 -38.136799
v  -62.977982 366.56952 0.77965921
v  -54.4753 376.61273 -50.577267
v  8.6742172 255.05804 -52.169777
v  8.7397728 230.79517 0.76035088
v  42.852333 597.58667 25.992733
v  8.6207466 640.28809 0.35068312
v  8.5721264 621.68707 -38.906254
v  61.208248 266.87427 0.3269335
v  47.535286 612.92334 0.029230267
v  42.852333 542.8125 -28.498348
v  8.757453 518.22632 58.11636
v  -47.36705 502.32263 42.016876
v  70.948547 512.44312 0.57519925
v  74.668587 502.32263 42.016876
v  8.757453 518.22632 -61.571716
v  63.47385 502.32263 -52.142052
v  -40.987659 512.44312 0.57519865
v  -26.590273 597.58667 -28.498352
v  -47.36705 502.32263 -44.959137

# 0 UV coordinates

# 285 vertex normals
vn 0.8660031 0.00011481212 -0.50003856
vn 0.8660633 0.00011480746 -0.49993435
vn 0.86599821 -2.1857758e-08 -0.50004721
vn 0 0.094169669 -0.99555618
vn 0 0.093845852 -0.99558669
vn -0.85899162 0.12726414 -0.49592057
vn -0.8590064 0.12725219 -0.49589792
vn -0.85895729 0.127407 -0.49594328
vn -0.86405027 0.067377299 0.49887621
vn -0.86409003 0.067380399 0.49880695
vn -0.86407471 0.067138545 0.49886593
vn 0 -0.026943842 0.99963701
vn 0 -0.02670289 0.99964339
vn 0.86439937 -0.060548842 0.49914679
vn 0.86442977 -0.060550969 0.49909389
vn 0.86441392 -0.060272437 0.49915516
vn 0.86454058 0.058742203 -0.49911818
vn 0.86456698 0.057984281 -0.49916095
vn 0 -0.010681362 -0.99994302
vn 0 -0.0091555975 -0.9999581
vn -0.86550188 -0.035095025 -0.49967465
vn -0.86543816 -0.036620215 -0.49967554
vn -0.8654967 -0.035095662 -0.49968368
vn -0.86601657 0.0091555761 0.49993145
vn -0.86597377 0.0091551868 0.50000554
vn -0.86599445 0.0091554057 0.49996984
vn 0 0.077819578 0.99696738
vn 0 0.07933595 0.99684799
vn 0.86149997 0.10222805 0.49736029
vn 0.86134845 0.10374708 0.49730808
vn 0.86147952 0.10222562 0.49739617
vn -0.77004761 0.045776535 -0.63634193
vn -0.77041107 0.050356135 -0.63555574
vn -0.7700904 0.045776248 -0.63629019
vn 0.61458737 0.29294643 -0.73243761
vn 0.6146251 0.29296014 -0.73240042
vn 0.76759225 -0.01525836 0.64075691
vn 0.76761955 -0.01525985 0.64072412
vn 0.76763916 -0.015259292 0.6407007
vn -0.61996144 -0.26400307 0.73888445
vn -0.6199978 -0.26402363 0.7388466
vn -0.7644456 0.047300998 -0.64295065
vn -0.76438951 0.048823252 -0.64290345
vn -0.76437968 0.048824146 -0.64291525
vn 0.6305958 -0.19379476 -0.75152677
vn 0.63042516 -0.19528259 -0.75128484
vn 0.63042694 -0.19528224 -0.75128347
vn 0.76616007 0.024413394 0.64218599
vn 0.76621318 0.02441461 0.64212257
vn 0.76616991 0.024412947 0.64217418
vn -0.62156373 0.25480494 0.74076515
vn -0.62179023 0.25338116 0.74106348
vn -0.62180483 0.25337741 0.74105251
vn 0.04319936 0.12511607 0.99120122
vn 0.012970358 0.079348117 0.99676251
vn 0.015258852 0.083923727 0.99635535
vn -0.86134905 0.50801361 -2.2205979e-08
vn -0.9602176 0.2792528 -1.2206527e-08
vn -0.96534264 0.26098591 -1.1408057e-08
vn -0.027572311 -0.080869287 -0.99634331
vn -0.0057221428 -0.033569951 -0.99941993
vn -0.0057218457 -0.027464902 -0.99960643
vn 0.8851456 -0.46531406 2.0339524e-08
vn 0.97822469 -0.20754845 9.072231e-09
vn 0.97417217 -0.22580655 9.8703179e-09
vn 0.012970051 0.07934624 0.99676269
vn -0.00076293026 0.030517252 0.99953401
vn -0.00019073261 0.03051726 0.99953425
vn -0.9602176 0.2792528 -2.3855513e-05
vn -0.9999814 0.0061032623 -2.6678207e-10
vn -0.00076294842 0.030517893 -0.99953395
vn 0 0.030517904 -0.99953425
vn 0.99849069 0.054920804 -2.4006646e-09
vn -0.99895167 0.036622029 -0.027466524
vn 0.0001430526 -0.61493552 -0.78857744
vn 0.00014306066 -0.61497015 -0.78855038
vn 0.99889916 0.038145941 -0.027298192
vn 0.99889463 0.038145769 -0.027464954
vn -0.00014304268 0.6850791 0.7284686
vn -0.00016687153 0.68503153 0.72851336
vn 0.2168095 -0.86571383 0.45114669
vn 0.21682085 -0.86575919 0.45105422
vn -0.58455259 0.64734 0.48913097
vn -0.58449805 0.64727956 0.48927617
vn -0.58453363 0.64731896 0.48918164
vn -0.31282562 -0.18311739 0.93199146
vn -0.31280044 -0.18304685 0.93201375
vn 0.88369793 -0.21358256 0.41648602
vn 0.88371778 -0.21349522 0.41648847
vn 0.88378137 -0.21351059 0.41634569
vn 0.42083883 -0.19840094 -0.88517326
vn 0.4143618 -0.20436896 -0.88686961
vn 0.42192242 -0.19837224 -0.8846637
vn -0.97385097 -0.12969422 -0.1865308
vn -0.97363448 -0.13119087 -0.18661447
vn -0.97365719 -0.13119394 -0.18649368
vn 0.60777831 -0.72162944 -0.33144605
vn 0.60856801 -0.72081333 -0.33177263
vn 0.6077795 -0.72163087 -0.33144075
vn 0.60395283 0.70699239 0.36797124
vn 0.60383177 0.70707363 0.36801353
vn 0.60397261 0.70701557 0.36789402
vn -0.12454066 -0.43975732 0.88943976
vn -0.12548991 -0.44550821 0.88643932
vn -0.12567762 -0.44549754 0.8864181
vn -0.21679887 -0.21822961 -0.95151144
vn -0.21670796 -0.21823412 -0.95153111
vn -0.21672647 -0.21968231 -0.95119363
vn -0.51281315 -0.74229985 0.43129298
vn -0.5121907 -0.74292439 0.4309572
vn -0.51237208 -0.74291086 0.43076465
vn -0.52476352 0.76939875 -0.36420977
vn -0.52478629 0.76943213 -0.36410633
vn -0.52476376 0.76939911 -0.36420864
vn 0.91840017 -0.26545122 -0.29338843
vn 0.91842586 -0.26545864 -0.29330128
vn -0.9469921 -0.17391396 0.27011076
vn -0.94701433 -0.17391804 0.27003065
vn -0.94699132 -0.17391382 0.2701135
vn 0.49140325 -0.70810902 0.50705475
vn 0.49140546 -0.70811224 0.50704807
vn 0.49133018 -0.70814121 0.50708073
vn 0.23978886 0.35377431 -0.90407139
vn 0.2397894 0.35377511 -0.90407085
vn 0.23996837 0.35375798 -0.90403003
vn -0.3272467 0.22585845 0.91754979
vn -0.3271043 0.22582598 0.91760862
vn -0.32733187 0.2258514 0.91752112
vn 0.94834667 0.317132 -0.0081117516
vn 0.94830769 0.3172465 -0.0081980899
vn 0.94926155 0.31438565 -0.0080122696
vn 0.30044305 0.59154779 -0.74820131
vn 0.3003135 0.59148037 -0.74830657
vn 0.30089819 0.58957708 -0.74957252
vn -0.97631502 0.19533931 0.093013883
vn -0.97629899 0.19537428 0.093108051
vn -0.97630799 0.19533791 0.093090713
vn 0.28617176 0.25030491 0.92490709
vn 0.28657258 0.25032175 0.92477846
vn 0.286522 0.25027758 0.92480606
vn -0.33561149 0.231877 -0.91301584
vn -0.3356961 0.23186956 -0.91298658
vn 0.81230158 0.54051644 -0.21910769
vn 0.81096029 0.54267269 -0.2187459
vn 0.81094974 0.5426656 -0.2188026
vn -0.97539896 0.19530867 -0.10223189
vn -0.97538 0.19530487 -0.10242063
vn -0.97538227 0.19530533 -0.10239703
vn -0.26493153 0.04579303 0.96317923
vn -0.26479599 0.048820905 0.96306783
vn -0.26474553 0.045777366 0.96323121
vn 0.92093003 -0.012207838 0.38953665
vn 0.92094076 -0.01220798 0.38951141
vn 0.38489714 0.0091528269 -0.92291409
vn 0.38495141 0.0091563864 -0.92289144
vn 0.38527632 0.0091550406 -0.92275584
vn -0.98017037 0.14651048 -0.13341896
vn -0.98015481 0.14650816 -0.13353609
vn 0.27090359 0.04578656 0.96151692
vn 0.27104121 0.048829421 0.96132845
vn 0.27108034 0.045784198 0.96146727
vn -0.36510038 0.061040774 -0.92896491
vn -0.3648057 0.061023388 -0.92908174
vn 0.93611842 0.048827678 -0.34827879
vn 0.93611652 0.048827577 -0.34828401
vn -0.97835225 0.14652389 0.14614232
vn -0.97833693 0.1465216 0.14624736
vn 0.19520095 0.091545098 -0.9764815
vn 0.19529267 0.091543391 -0.97646332
vn -0.30593193 0.088498965 -0.94793123
vn -0.30584791 0.091525517 -0.94767094
vn -0.30604258 0.08853098 -0.94789249
vn 0.98970717 0.13124876 -0.057039801
vn 0.99009931 0.12824725 -0.057062399
vn 0.9897179 0.13125017 -0.056849647
vn 0.9782145 0.12819035 -0.1632901
vn 0.97819644 0.12818798 -0.16340034
vn 0.14504559 -0.89928269 -0.41261652
vn 0.14495218 -0.89929515 -0.41262221
vn 0.14494719 -0.89926416 -0.4126915
vn -0.12433145 -0.44088084 0.88891268
vn 0.8660633 0.00011482312 -0.49993435
vn 0 0.094169654 -0.99555618
vn -0.85900652 0.12725219 -0.49589804
vn -0.85895509 0.127408 -0.49594712
vn -0.86409003 0.067380413 0.49880695
vn -0.86411124 0.067142777 0.49880201
vn 0 -0.026943844 0.99963701
vn 0.86442995 -0.060550962 0.49909377
vn 0.86443448 -0.060273875 0.49911934
vn 0.86455786 0.05798687 -0.4991765
vn -0.86543399 -0.03661802 -0.49968311
vn -0.86599964 0.0091549568 0.49996075
vn 0.86136043 0.10374852 0.49728712
vn -0.77563661 0.044251222 -0.62962657
vn -0.77560186 0.044250049 -0.62966949
vn -0.77561337 0.044249896 -0.62965542
vn 0.61460364 0.29294989 -0.73242253
vn 0.76929659 -0.013732303 0.63874412
vn 0.76933378 -0.013733392 0.63869935
vn 0.76932013 -0.013732723 0.63871598
vn -0.61997586 -0.26401433 0.73886818
vn -0.77042669 0.051878314 -0.6354143
vn 0.63056707 -0.19380058 -0.75154936
vn 0.76309818 0.02441383 0.64582133
vn 0.76307881 0.025938224 0.6457848
vn 0.015449543 0.083923489 0.99635243
vn 0.045599151 0.12360056 0.99128377
vn 0.043294545 0.12511556 0.99119711
vn -0.029086892 -0.079345271 -0.99642271
vn -0.027607964 -0.080868967 -0.9963423
vn 0.97417217 -0.22580655 2.3849243e-05
vn 0 0.03051726 0.99953425
vn -0.99889463 0.038145769 -0.027464954
vn -0.9988963 0.038145833 -0.027405398
vn -0.99889725 0.03814587 -0.027369663
vn 0 -0.61497015 -0.78855038
vn 0 -0.61492974 -0.78858197
vn 0.99889725 0.03814587 -0.027369663
vn 0.9988963 0.038145833 -0.027405398
vn 0 0.68503153 0.72851336
vn 0 0.6850791 0.7284686
vn -0.29750586 -0.42413655 0.8553353
vn -0.29741892 -0.42414853 0.85535955
vn -0.29737192 -0.42408153 0.85540909
vn -0.52190024 0.75690794 0.39333269
vn -0.52188677 0.75688845 0.39338809
vn -0.52188659 0.75688815 0.3933889
vn 0.12290221 -0.44580677 0.88665169
vn 0.12271426 -0.44581723 0.88667256
vn 0.12267274 -0.4456664 0.8867541
vn 0.90914571 -0.26553312 0.32085252
vn 0.90914309 -0.26553234 0.32086053
vn 0.90921009 -0.26544052 0.3207466
vn 0.41333458 -0.20447382 -0.88732463
vn -0.98341119 -0.17699875 -0.039672125
vn -0.98341769 -0.17699993 -0.0395055
vn 0.4960748 -0.72849077 -0.47245216
vn 0.49611872 -0.72855526 -0.47230643
vn 0.49659887 -0.72787452 -0.47285137
vn 0.49963662 0.70285273 0.50632131
vn 0.49962056 0.70283014 0.50636846
vn 0.49969241 0.70279688 0.50634372
vn 0.32047775 -0.1831301 0.92938548
vn 0.32039216 -0.1831357 0.92941391
vn -0.40316871 -0.12968534 -0.90588999
vn -0.40308851 -0.13118495 -0.90570974
vn -0.40330765 -0.13122523 -0.90560639
vn -0.59114915 0.66535276 -0.45590401
vn -0.59120059 0.66541064 -0.45575291
vn -0.59119785 0.6654076 -0.45576069
vn 0.89869833 -0.21065032 -0.38466579
vn 0.8987717 -0.2105781 -0.38453388
vn 0.89870775 -0.21056312 -0.38469133
vn -0.95588583 -0.19834819 0.2166573
vn -0.9559117 -0.19835357 0.216538
vn 0.91095883 0.37231818 -0.17757595
vn 0.91091174 0.37233791 -0.17777611
vn 0.91093725 0.37234834 -0.17762312
vn -0.38960665 0.18927026 0.90132308
vn 0.92946535 0.21959478 0.29643267
vn 0.92941314 0.21967255 0.29653877
vn 0.92941833 0.21967377 0.29652143
vn 0.62059093 0.1708293 -0.76530015
vn 0.62070817 0.17080909 -0.76520962
vn -0.97321403 0.091560706 -0.21088172
vn -0.97321367 0.091560669 -0.21088332
vn -0.97319567 0.091558971 -0.21096715
vn 0.3988305 0.18930142 0.89727324
vn -0.39918455 0.19530095 -0.8958289
vn -0.39925274 0.19533432 -0.89579117
vn 0.79513681 0.18305305 -0.57814264
vn 0.79516518 0.18305957 -0.57810163
vn 0.79502398 0.1831149 -0.57827836
vn -0.96839851 0.091574334 0.2319883
vn -0.96840173 0.091574639 0.23197472
vn -0.96840113 0.091574587 0.231977
vn -0.29041418 0.061019436 0.95495349
vn -0.29029229 0.057982206 0.95517987
vn -0.99062455 0.048825551 0.12758893
vn -0.99064791 0.048826702 0.12740716
vn 0.24491139 0.03357045 0.9689641
vn 0.24497482 0.036617529 0.96883774
vn -0.98894298 0.048836682 -0.14002395
vn -0.98893315 0.048836198 -0.1400941

# Mesh 'Tree_temp_climate_004' with 128 faces
g Tree_temp_climate_004
usemtl Material #26
f  1//1 2//2 3//3
f  2//4 4//4 5//5
f  4//6 6//7 7//8
f  6//9 8//10 9//11
f  8//12 10//12 11//13
f  10//14 1//15 12//16
f  5//17 13//18 3//17
f  7//19 14//20 5//19
f  9//21 15//22 7//23
f  11//24 16//25 9//26
f  12//27 17//28 11//27
f  3//29 18//30 12//31
f  19//32 20//33 21//34
f  22//35 21//36 23//36
f  24//37 23//38 25//39
f  26//40 25//41 20//41
f  20//42 27//43 28//44
f  21//45 28//46 29//47
f  23//48 29//49 30//50
f  25//51 30//52 27//53
f  31//54 32//55 33//56
f  34//57 33//58 35//59
f  36//60 35//61 37//62
f  38//63 37//64 32//65
f  32//66 39//67 40//68
f  33//69 40//70 41//70
f  35//61 41//71 42//72
f  37//64 42//73 39//73
f  43//74 44//74 45//74
f  46//75 45//76 47//76
f  48//77 47//78 49//78
f  50//79 49//80 44//80
f  51//81 52//82 53//81
f  54//83 55//84 56//85
f  51//86 57//87 58//86
f  59//88 60//89 61//90
f  62//91 63//92 64//93
f  65//94 66//95 67//96
f  68//97 62//98 69//99
f  55//100 70//101 71//102
f  53//103 59//104 57//105
f  68//106 65//107 63//108
f  52//109 65//110 69//111
f  71//112 72//113 56//114
f  73//115 62//116 60//115
f  52//117 51//118 66//119
f  73//120 59//121 69//122
f  74//123 75//124 71//125
f  76//126 54//127 77//128
f  78//129 70//130 79//131
f  80//132 75//133 81//134
f  82//135 83//136 84//137
f  79//138 70//139 76//140
f  84//141 83//141 80//142
f  81//143 75//144 78//145
f  77//146 54//147 82//148
f  57//149 76//150 58//151
f  60//152 79//153 61//153
f  63//154 81//155 64//156
f  66//157 82//157 67//158
f  61//159 76//160 57//161
f  67//162 84//162 63//163
f  64//164 81//164 60//165
f  58//166 82//167 66//167
f  63//168 80//168 81//169
f  84//170 80//171 63//172
f  60//173 78//174 79//175
f  81//176 78//177 60//177
f  65//178 68//179 69//180
f  59//104 53//103 69//181
f  2//182 5//3 3//3
f  4//183 7//5 5//5
f  6//184 9//185 7//8
f  8//186 11//187 9//11
f  10//188 12//13 11//13
f  1//189 3//190 12//16
f  13//18 18//191 3//17
f  14//20 13//20 5//19
f  15//22 14//192 7//23
f  16//25 15//193 9//26
f  17//28 16//28 11//27
f  18//30 17//194 12//31
f  21//195 22//196 19//197
f  23//36 24//198 22//35
f  25//199 26//200 24//201
f  20//41 19//202 26//40
f  28//203 21//34 20//33
f  29//47 23//204 21//45
f  30//205 25//206 23//206
f  27//53 20//51 25//51
f  33//207 34//208 31//209
f  35//59 36//57 34//57
f  37//62 38//210 36//211
f  32//212 31//63 38//63
f  40//213 33//56 32//55
f  41//70 35//59 33//58
f  42//72 37//62 35//61
f  39//73 32//65 37//64
f  45//214 46//215 43//216
f  47//217 48//218 46//218
f  49//78 50//219 48//220
f  44//221 43//222 50//222
f  52//223 69//224 53//225
f  55//226 71//227 56//228
f  51//229 53//230 57//231
f  59//232 73//233 60//234
f  62//91 68//235 63//92
f  65//236 52//237 66//237
f  62//238 73//239 69//240
f  70//241 74//242 71//243
f  59//244 61//244 57//245
f  65//246 67//247 63//248
f  72//249 83//250 56//251
f  62//252 64//253 60//254
f  51//255 58//255 66//256
f  75//257 72//258 71//259
f  76//260 55//260 54//260
f  78//261 74//262 70//263
f  80//264 72//264 75//265
f  82//266 56//267 83//268
f  70//269 55//269 76//269
f  83//270 72//271 80//271
f  75//272 74//273 78//274
f  54//275 56//276 82//277
f  76//278 77//279 58//279
f  82//280 84//281 67//281
f  61//282 79//282 76//283
f  58//284 77//284 82//285

